[
    {
        "previewName": {
            "en": "Arches National Park, Moab, Utah",
            "ru": "Нац. парк Арки, Моаб, штат Юта"
        },
        "previewRes": "p1_moab_preview",
        "shortName": {
            "en": "Arches National Park",
            "ru": "Нац. парк Арки"
        },
        "description": {
            "en": "In addition to a variety of geological formations, the park contains over 2,000 natural sandstone arches, including the world-famous Delicate Arch.",
            "ru": "Наряду с другими чудесами природы в парке находится более 2000 нерукотворных арок из песчаника. В том числе – всемирно известная Изящная арка."
        },
        "coordinates": {
            "latitude": 38.73175,
            "longitude": -109.72572
        },
        "dynamicWallpapers": [
            {
                "serviceName": ".wallpapers.MoabWallpaperService"
            }
        ],
        "staticWallpapers": [
            {
                "remoteUrl": "p1_moab_preview"
            }
        ],
        "parentId": 1,
        "categoryId": 2,
        "author": "Google"
    },
    {
        "previewName": {
            "en": "Garden, Kent, United Kingdom",
            "ru": "Сад, Кент, Великобритани"
        },
        "previewRes": "p1_kent_preview",
        "shortName": {
            "en": "Garden",
            "ru": "Сад"
        },
        "description": {
            "en": "With its abundance of fruit orchards and hop gardens, Kent is known as The Garden of England.",
            "ru": "Из-за многочисленных фруктовых садов и плантаций хмеля Кент называют \"садом Англии\"."
        },
        "coordinates": {
            "latitude": 51.283894,
            "longitude": 0.7860345
        },
        "dynamicWallpapers": [
            {
                "serviceName": ".wallpapers.KentWallpaperService"
            }
        ],
        "staticWallpapers": [
            {
                "remoteUrl": "p1_kent_preview"
            }
        ],
        "parentId": 1,
        "categoryId": 2,
        "author": "Google"
    },
    {
        "previewName": {
            "en": "Half Dome, Yosemite National Park, CA",
            "ru": "Скала Хаф-Доум в Йосемитском нац. парке, штат Калифорния"
        },
        "previewRes": "p1_half_dome_preview",
        "shortName": {
            "en": "Half Dome",
            "ru": "Скала Хаф-Доум"
        },
        "description": {
            "en": "This granite formation in Yosemite Valley, named for its distinct shape, rises more than 4,737 ft above the valley floor.",
            "ru": "Название этой гранитной скалы переводится как \"полукупол\". Она возвышается над долиной Йосемити на 1450 метров."
        },
        "coordinates": {
            "latitude": 37.746494,
            "longitude": -119.53273
        },
        "dynamicWallpapers": [
            {
                "serviceName": ".wallpapers.HalfDomeWallpaperService"
            }
        ],
        "staticWallpapers": [
            {
                "remoteUrl": "p1_half_dome_preview"
            }
        ],
        "parentId": 1,
        "categoryId": 2,
        "author": "Google"
    },
    {
        "previewName": {
            "en": "Horizon",
            "ru": "Горизонт"
        },
        "previewRes": "p1_sunset_preview",
        "shortName": {
            "en": "Horizon",
            "ru": "Горизонт"
        },
        "description": {
            "en": "Look to the horizon. The sun rises as your phone charges, and lowers as the battery is used.",
            "ru": "Солнце поднимается над горизонтом, пока ваш телефон заряжается, и опускается, когда расходуется заряд батареи."
        },
        "dynamicWallpapers": [
            {
                "serviceName": ".wallpapers.SunsetOnBatteryWallpaperService"
            }
        ],
        "staticWallpapers": [
            {
                "remoteUrl": "p1_sunset_preview"
            }
        ],
        "parentId": 1,
        "categoryId": 2,
        "author": "Google"
    },
    {
        "previewName": {
            "en": "Pantheon, Rome, Italy",
            "ru": "Пантеон, Рим, Италия"
        },
        "previewRes": "p1_pantheon_preview",
        "shortName": {
            "en": "Pantheon",
            "ru": "Пантеон"
        },
        "description": {
            "en": "Almost two thousand years after the Pantheon was built, the circular building remains the world's largest unreinforced concrete dome.",
            "ru": "Пантеон построен почти 2000 лет назад, но и сегодня его неармированный бетонный купол остается самым большим в мире."
        },
        "coordinates": {
            "latitude": 41.898643,
            "longitude": 12.476896
        },
        "dynamicWallpapers": [
            {
                "serviceName": ".wallpapers.PantheonWallpaperService"
            }
        ],
        "staticWallpapers": [
            {
                "remoteUrl": "p1_pantheon_preview"
            }
        ],
        "parentId": 1,
        "categoryId": 1,
        "author": "Google"
    },
    {
        "previewName": {
            "en": "Shijuku, Tokyo, Japan",
            "ru": "Район Синдзюку, Токио, Япония"
        },
        "previewRes": "p1_togo_preview",
        "shortName": {
            "en": "Shijuku",
            "ru": "Район Синдзюку"
        },
        "description": {
            "en": "At 656 ft high, this building in Shinjuku, designed by Yoshikazu Uchida, is the 28th tallest building in Tokyo and the 33rd tallest in Japan.",
            "ru": "Это здание в районе Синдзюку высотой 200 метров создал архитектор Йошикацу Йошида. Сегодня оно на 28 месте среди самых высоких зданий Токио и на 33 месте – среди небоскребов Японии."
        },
        "coordinates": {
            "latitude": 35.691753,
            "longitude": 139.69547
        },
        "dynamicWallpapers": [
            {
                "serviceName": ".wallpapers.TogoWallpaperService"
            }
        ],
        "staticWallpapers": [
            {
                "remoteUrl": "p1_togo_preview"
            }
        ],
        "parentId": 1,
        "categoryId": 1,
        "author": "Google"
    },
    {
        "previewName": {
            "en": "Whitehaven Beach, Queensland, Australia",
            "ru": "Пляж Уайтхэвен, Квинсленд, Австралия"
        },
        "previewRes": "p1_whitehaven_preview",
        "shortName": {
            "en": "Whitehaven Beach",
            "ru": "Пляж Уайтхэвен"
        },
        "description": {
            "en": "Known for its white sands, Whitehaven Beach is made up of 98% pure silica, which gives it a bright white color.",
            "ru": "Пляж Уайтхэвен славится своим белоснежным песком, который на 98% состоит из чистого диоксида кремния."
        },
        "coordinates": {
            "latitude": 54.54983,
            "longitude": -3.588655
        },
        "dynamicWallpapers": [
            {
                "serviceName": ".wallpapers.WhitehavenWallpaperService"
            }
        ],
        "staticWallpapers": [
            {
                "remoteUrl": "p1_whitehaven_preview"
            }
        ],
        "parentId": 1,
        "categoryId": 2,
        "author": "Google"
    },
    {
        "previewName": {
            "en": "Your world, Solar system",
            "ru": "Солнечная система"
        },
        "previewRes": "p1_earth_preview",
        "shortName": {
            "en": "Your world",
            "ru": "Солнечная система"
        },
        "description": {
            "en": "Inspired by Apollo 17's Blue Marble, view Earth from space based on your location, with real-time clouds.",
            "ru": "Обои по мотивам знаменитой фотографии, сделанной экипажем корабля \"Аполлон-17\". Вид на Землю из космоса меняется в зависимости от вашего местоположения. Любуйтесь изображением облаков в реальном времени!"
        },
        "dynamicWallpapers": [
            {
                "serviceName": ".wallpapers.EarthWallpaperService"
            }
        ],
        "staticWallpapers": [
            {
                "remoteUrl": "p1_earth_preview"
            }
        ],
        "parentId": 1,
        "categoryId": 0,
        "author": "Google"
    },
    {
        "shortName": {
            "en": "Gooey",
            "ru": "Капли на стекле"
        },
        "description": {
            "en": "Touch these adaptable screens to reshape the gooey patterns.",
            "ru": "Проведите по экрану или коснитесь его, и изображение изменится."
        },
        "dynamicWallpapers": [
            {
                "previewName": {
                    "en": "Gooey, Marshmallow",
                    "ru": "Капли на стекле: маршмеллоу"
                },
                "shortName": null,
                "serviceName": ".canyons.variations.CanyonsWallpaperV1",
                "previewRes": "p2_canyons_v1_preview"
            },
            {
                "previewName": {
                    "en": "Gooey, Licorice",
                    "ru": "Капли на стекле: темная ночь"
                },
                "shortName": null,
                "serviceName": ".canyons.variations.CanyonsWallpaperV2",
                "previewRes": "p2_canyons_v2_preview"
            },
            {
                "previewName": {
                    "en": "Gooey, Mint",
                    "ru": "Капли на стекле: нежная мята"
                },
                "shortName": null,
                "serviceName": ".canyons.variations.CanyonsWallpaperV3",
                "previewRes": "p2_canyons_v3_preview"
            },
            {
                "previewName": {
                    "en": "Gooey, Orange crush",
                    "ru": "Капли на стекле: солнечный оранжад"
                },
                "shortName": null,
                "serviceName": ".canyons.variations.CanyonsWallpaperV4",
                "previewRes": "p2_canyons_v4_preview"
            },
            {
                "previewName": {
                    "en": "Gooey, Vanilla taffy",
                    "ru": "Капли на стекле: брызги шампанского"
                },
                "shortName": null,
                "serviceName": ".canyons.variations.CanyonsWallpaperV5",
                "previewRes": "p2_canyons_v5_preview"
            },
            {
                "previewName": {
                    "en": "Gooey, Violet dream",
                    "ru": "Капли на стекле: северное сияние"
                },
                "shortName": null,
                "serviceName": ".canyons.variations.CanyonsWallpaperV6",
                "previewRes": "p2_canyons_v6_preview"
            }
        ],
        "staticWallpapers": [
            {
                "previewName": {
                    "en": "Gooey, Marshmallow",
                    "ru": "Капли на стекле: маршмеллоу"
                },
                "shortName": null,
                "remoteUrl": "p2_canyons_v1_preview",
                "previewRes": "p2_canyons_v1_preview"
            },
            {
                "previewName": {
                    "en": "Gooey, Licorice",
                    "ru": "Капли на стекле: темная ночь"
                },
                "shortName": null,
                "remoteUrl": "p2_canyons_v2_preview",
                "previewRes": "p2_canyons_v2_preview"
            },
            {
                "previewName": {
                    "en": "Gooey, Mint",
                    "ru": "Капли на стекле: нежная мята"
                },
                "shortName": null,
                "remoteUrl": "p2_canyons_v3_preview",
                "previewRes": "p2_canyons_v3_preview"
            },
            {
                "previewName": {
                    "en": "Gooey, Orange crush",
                    "ru": "Капли на стекле: солнечный оранжад"
                },
                "shortName": null,
                "remoteUrl": "p2_canyons_v4_preview",
                "previewRes": "p2_canyons_v4_preview"
            },
            {
                "previewName": {
                    "en": "Gooey, Vanilla taffy",
                    "ru": "Капли на стекле: брызги шампанского"
                },
                "shortName": null,
                "remoteUrl": "p2_canyons_v5_preview",
                "previewRes": "p2_canyons_v5_preview"
            },
            {
                "previewName": {
                    "en": "Gooey, Violet dream",
                    "ru": "Капли на стекле: северное сияние"
                },
                "shortName": null,
                "remoteUrl": "p2_canyons_v6_preview",
                "previewRes": "p2_canyons_v6_preview"
            }
        ],
        "parentId": 2,
        "categoryId": 3,
        "author": "Google"
    },
    {
        "previewName": {
            "en": "World comes to you",
            "ru": "На орбите"
        },
        "previewRes": "p2_earth_orbit_preview",
        "shortName": {
            "en": "World comes to you",
            "ru": "На орбите"
        },
        "description": {
            "en": "Journey around the world without packing a suitcase. Your vantage point changes throughout the day.",
            "ru": "Чтобы отправиться в кругосветное путешествие, не обязательно паковать чемоданы. Открывайте новые места с течением дня."
        },
        "dynamicWallpapers": [
            {
                "serviceName": ".celestialbodies.EarthOrbitWallpaperService"
            }
        ],
        "staticWallpapers": [
            {
                "remoteUrl": "p2_earth_orbit_preview"
            }
        ],
        "parentId": 2,
        "categoryId": 0,
        "author": "Google"
    },
    {
        "previewName": {
            "en": "A walk in the clouds, Hawaii",
            "ru": "Атмосферные явления, Гавайи"
        },
        "previewRes": "p2_honolulu_preview",
        "shortName": {
            "en": "A walk in the clouds",
            "ru": "Атмосферные явления"
        },
        "description": {
            "en": "Float by the clouds and frequent rain showers that earned Hawaii the nickname “rainbow state.” Kāneʻohe, Hawaii, United States",
            "ru": "Проплывите над островами вместе с облаками и проливными дождями, из-за которых Гавайи получили прозвище \"Радужный штат\". Канеохе, Гавайи, США"
        },
        "coordinates": {
            "latitude": 21.403193,
            "longitude": -157.80019
        },
        "dynamicWallpapers": [
            {
                "serviceName": ".dioramas.honolulu.HonoluluWallpaperService"
            }
        ],
        "staticWallpapers": [
            {
                "remoteUrl": "p2_honolulu_preview"
            }
        ],
        "parentId": 2,
        "categoryId": 2,
        "author": "Google"
    },
    {
        "shortName": {
            "en": "Glimmer",
            "ru": "Цветоформы"
        },
        "description": {
            "en": "Catch a glimmer of color as you move or touch your phone.",
            "ru": "Коснитесь экрана или наклоните устройство, и изображение изменится."
        },
        "dynamicWallpapers": [
            {
                "previewName": {
                    "en": "Glimmer, Candy",
                    "ru": "Цветоформы: леденцовое ассорти"
                },
                "shortName": null,
                "serviceName": ".imprint.variations.ImprintWallpaperV1",
                "previewRes": "p2_imprint_v1_preview"
            },
            {
                "previewName": {
                    "en": "Glimmer, Cream",
                    "ru": "Цветоформы: кремовая фантазия"
                },
                "shortName": null,
                "serviceName": ".imprint.variations.ImprintWallpaperV2",
                "previewRes": "p2_imprint_v2_preview"
            },
            {
                "previewName": {
                    "en": "Glimmer, Dazzling blue",
                    "ru": "Цветоформы: сапфировое мерцание"
                },
                "shortName": null,
                "serviceName": ".imprint.variations.ImprintWallpaperV3",
                "previewRes": "p2_imprint_v3_preview"
            },
            {
                "previewName": {
                    "en": "Glimmer, Early morning",
                    "ru": "Цветоформы: рассветные мотивы"
                },
                "shortName": null,
                "serviceName": ".imprint.variations.ImprintWallpaperV4",
                "previewRes": "p2_imprint_v4_preview"
            },
            {
                "previewName": {
                    "en": "Glimmer, Purple haze",
                    "ru": "Цветоформы: фиолетовая дымка"
                },
                "shortName": null,
                "serviceName": ".imprint.variations.ImprintWallpaperV5",
                "previewRes": "p2_imprint_v5_preview"
            },
            {
                "previewName": {
                    "en": "Glimmer, Midnight blue",
                    "ru": "Цветоформы: синяя вечность"
                },
                "shortName": null,
                "serviceName": ".imprint.variations.ImprintWallpaperV6",
                "previewRes": "p2_imprint_v6_preview"
            }
        ],
        "staticWallpapers": [
            {
                "previewName": {
                    "en": "Glimmer, Candy",
                    "ru": "Цветоформы: леденцовое ассорти"
                },
                "shortName": null,
                "remoteUrl": "p2_imprint_v1_preview",
                "previewRes": "p2_imprint_v1_preview"
            },
            {
                "previewName": {
                    "en": "Glimmer, Cream",
                    "ru": "Цветоформы: кремовая фантазия"
                },
                "shortName": null,
                "remoteUrl": "p2_imprint_v2_preview",
                "previewRes": "p2_imprint_v2_preview"
            },
            {
                "previewName": {
                    "en": "Glimmer, Dazzling blue",
                    "ru": "Цветоформы: сапфировое мерцание"
                },
                "shortName": null,
                "remoteUrl": "p2_imprint_v3_preview",
                "previewRes": "p2_imprint_v3_preview"
            },
            {
                "previewName": {
                    "en": "Glimmer, Early morning",
                    "ru": "Цветоформы: рассветные мотивы"
                },
                "shortName": null,
                "remoteUrl": "p2_imprint_v4_preview",
                "previewRes": "p2_imprint_v4_preview"
            },
            {
                "previewName": {
                    "en": "Glimmer, Purple haze",
                    "ru": "Цветоформы: фиолетовая дымка"
                },
                "shortName": null,
                "remoteUrl": "p2_imprint_v5_preview",
                "previewRes": "p2_imprint_v5_preview"
            },
            {
                "previewName": {
                    "en": "Glimmer, Midnight blue",
                    "ru": "Цветоформы: синяя вечность"
                },
                "shortName": null,
                "remoteUrl": "p2_imprint_v6_preview",
                "previewRes": "p2_imprint_v6_preview"
            }
        ],
        "parentId": 2,
        "categoryId": 3,
        "author": "Google"
    },
    {
        "shortName": {
            "en": "Your whirled",
            "ru": "В погоне за ветром"
        },
        "description": {
            "en": "Local wind patterns swirl and twirl in real time, based on your location.",
            "ru": "Движение потоков ветра в режиме реального времени (c учетом вашего местоположения)."
        },
        "dynamicWallpapers": [
            {
                "previewName": {
                    "en": "Your whirled, Blue",
                    "ru": "В погоне за ветром: небесная лазурь"
                },
                "shortName": null,
                "serviceName": ".windy.variations.Windy1WallpaperService",
                "previewRes": "p2_windy1"
            },
            {
                "previewName": {
                    "en": "Your whirled, Blush",
                    "ru": "В погоне за ветром: закатные краски"
                },
                "shortName": null,
                "serviceName": ".windy.variations.Windy2WallpaperService",
                "previewRes": "p2_windy2"
            },
            {
                "previewName": {
                    "en": "Your whirled, Midnight",
                    "ru": "В погоне за ветром: полночное небо"
                },
                "shortName": null,
                "serviceName": ".windy.variations.Windy3WallpaperService",
                "previewRes": "p2_windy3"
            },
            {
                "previewName": {
                    "en": "Your whirled, Sunset",
                    "ru": "В погоне за ветром: закат"
                },
                "shortName": null,
                "serviceName": ".windy.variations.Windy4WallpaperService",
                "previewRes": "p2_windy4"
            },
            {
                "previewName": {
                    "en": "Your whirled, Turquoise",
                    "ru": "В погоне за ветром: бирюзовый бриз"
                },
                "shortName": null,
                "serviceName": ".windy.variations.Windy5WallpaperService",
                "previewRes": "p2_windy5"
            },
            {
                "previewName": {
                    "en": "Your whirled, Sky blue",
                    "ru": "В погоне за ветром: синяя даль"
                },
                "shortName": null,
                "serviceName": ".windy.variations.Windy6WallpaperService",
                "previewRes": "p2_windy6"
            }
        ],
        "staticWallpapers": [
            {
                "previewName": {
                    "en": "Your whirled, Blue",
                    "ru": "В погоне за ветром: небесная лазурь"
                },
                "shortName": null,
                "remoteUrl": "p2_windy1",
                "previewRes": "p2_windy1"
            },
            {
                "previewName": {
                    "en": "Your whirled, Blush",
                    "ru": "В погоне за ветром: закатные краски"
                },
                "shortName": null,
                "remoteUrl": "p2_windy2",
                "previewRes": "p2_windy2"
            },
            {
                "previewName": {
                    "en": "Your whirled, Midnight",
                    "ru": "В погоне за ветром: полночное небо"
                },
                "shortName": null,
                "remoteUrl": "p2_windy3",
                "previewRes": "p2_windy3"
            },
            {
                "previewName": {
                    "en": "Your whirled, Sunset",
                    "ru": "В погоне за ветром: закат"
                },
                "shortName": null,
                "remoteUrl": "p2_windy4",
                "previewRes": "p2_windy4"
            },
            {
                "previewName": {
                    "en": "Your whirled, Turquoise",
                    "ru": "В погоне за ветром: бирюзовый бриз"
                },
                "shortName": null,
                "remoteUrl": "p2_windy5",
                "previewRes": "p2_windy5"
            },
            {
                "previewName": {
                    "en": "Your whirled, Sky blue",
                    "ru": "В погоне за ветром: синяя даль"
                },
                "shortName": null,
                "remoteUrl": "p2_windy6",
                "previewRes": "p2_windy6"
            }
        ],
        "parentId": 2,
        "categoryId": 3,
        "author": "Google"
    },
    {
        "previewName": {
            "en": "Calming coastline, Lagos",
            "ru": "Безмятежный прибой, Лагуш"
        },
        "previewRes": "p2_lagos_preview",
        "shortName": {
            "en": "Calming coastline",
            "ru": "Безмятежный прибой"
        },
        "description": {
            "en": "Watch live turquoise waves lap against Ponta da Piedade, a group of rock formations along the Atlantic coast. Lagos, Portugal",
            "ru": "Посмотрите, как бирюзовые волны Атлантического океана накатывают на скалы Понта-да-Пьедаде. Лагуш, Португалия."
        },
        "coordinates": {
            "latitude": 37.118816,
            "longitude": -8.685016
        },
        "dynamicWallpapers": [
            {
                "serviceName": ".dioramas.lagos.LagosWallpaperService"
            }
        ],
        "staticWallpapers": [
            {
                "remoteUrl": "p2_lagos_preview"
            }
        ],
        "parentId": 2,
        "categoryId": 2,
        "author": "Google"
    },
    {
        "previewName": {
            "en": "Planet red",
            "ru": "Красная планета"
        },
        "previewRes": "p2_mars_preview",
        "shortName": {
            "en": "Planet red",
            "ru": "Красная планета"
        },
        "description": {
            "en": "Glimpse real-time sunrise and sunset over Mars’ ice caps while thin, wispy clouds float by the Valles Marineris canyon.",
            "ru": "Вы увидите настоящие закаты и рассветы над ледяными шапками Марса, а также невесомые облака, проплывающие над долинами Маринер."
        },
        "dynamicWallpapers": [
            {
                "serviceName": ".celestialbodies.MarsWallpaperService"
            }
        ],
        "staticWallpapers": [
            {
                "remoteUrl": "p2_mars_preview"
            }
        ],
        "parentId": 2,
        "categoryId": 0,
        "author": "Google"
    },
    {
        "previewName": {
            "en": "Flying above, Monument Valley",
            "ru": "Взгляд с высоты, Долина монументов"
        },
        "previewRes": "p2_monument_valley_preview",
        "shortName": {
            "en": "Flying above",
            "ru": "Взгляд с высоты"
        },
        "description": {
            "en": "Hot-air balloons float by Monument Valley’s red sandstone formations. Monument Valley, Utah, United States",
            "ru": "Воздушные шары пролетают над скалами из красного песчаника. Долина монументов, Юта, США."
        },
        "coordinates": {
            "latitude": 37.14054,
            "longitude": -110.20773
        },
        "dynamicWallpapers": [
            {
                "serviceName": ".dioramas.monumentvalley.MonumentValleyWallpaperService"
            }
        ],
        "staticWallpapers": [
            {
                "remoteUrl": "p2_monument_valley_preview"
            }
        ],
        "parentId": 2,
        "categoryId": 2,
        "author": "Google"
    },
    {
        "previewName": {
            "en": "Hint of salt, Salar de Uyuni",
            "ru": "Вода и соль, солончак Уюни"
        },
        "previewRes": "p2_uyuni_preview",
        "shortName": {
            "en": "Hint of salt",
            "ru": "Вода и соль"
        },
        "description": {
            "en": "See the world’s largest salt flat, Salar de Uyuni, a breeding ground for several species of flamingos. Salar de Uyuni, Bolivia",
            "ru": "Самый большой в мире солончак, на котором обзаводятся потомством несколько видов фламинго. Солончак Уюни, Боливия."
        },
        "coordinates": {
            "latitude": -20.116491,
            "longitude": -67.48218
        },
        "dynamicWallpapers": [
            {
                "serviceName": ".dioramas.uyuni.UyuniWallpaperService"
            }
        ],
        "staticWallpapers": [
            {
                "remoteUrl": "p2_uyuni_preview"
            }
        ],
        "parentId": 2,
        "categoryId": 2,
        "author": "Google"
    },
    {
        "previewName": {
            "en": "Hidden fires, Mount Vesuvius",
            "ru": "Внутренний огонь, вулкан Везувий"
        },
        "previewRes": "p2_vesuvius_preview",
        "shortName": {
            "en": "Hidden fires",
            "ru": "Внутренний огонь"
        },
        "description": {
            "en": "Birds soar above Mount Vesuvius volcano, which destroyed Pompeii in AD 79 and erupted in 1944. Mount Vesuvius, Campania, Italy",
            "ru": "Полет птиц над Везувием – вулканом, который уничтожил Помпеи в 79 г. н. э. Последнее извержение произошло в 1944 г. Вулкан Везувий, Кампания, Италия."
        },
        "coordinates": {
            "latitude": 40.823227,
            "longitude": 14.428777
        },
        "dynamicWallpapers": [
            {
                "serviceName": ".dioramas.vesuvius.VesuviusWallpaperService"
            }
        ],
        "staticWallpapers": [
            {
                "remoteUrl": "p2_vesuvius_preview"
            }
        ],
        "parentId": 2,
        "categoryId": 2,
        "author": "Google"
    },
    {
        "previewName": {
            "en": "Moon shot",
            "ru": "На обратной стороне"
        },
        "previewRes": "p3_moon_preview",
        "shortName": {
            "en": "Moon shot",
            "ru": "На обратной стороне"
        },
        "description": {
            "en": "Get closer to the moon and observe its real-time lunar phases.",
            "ru": "Следите за сменой фаз луны в реальном времени."
        },
        "dynamicWallpapers": [
            {
                "serviceName": ".celestialBodies.wallpapers.variations.MoonWallpaperService"
            }
        ],
        "staticWallpapers": [
            {
                "remoteUrl": "p3_moon_preview"
            }
        ],
        "parentId": 3,
        "categoryId": 0,
        "author": "Google"
    },
    {
        "previewName": {
            "en": "White Sands, Sonoran Desert",
            "ru": "Белый песок: пустыня Сонора"
        },
        "previewRes": "p3_mexico_preview",
        "shortName": {
            "en": "White Sands",
            "ru": "Белый песок"
        },
        "description": {
            "en": "Watch wind carry dancing sand across the Sonoran Desert, spanning the United States and Mexico. Sonoran Desert, Mexico",
            "ru": "Песок пляшет на крыльях ветра в пустыне, раскинувшейся на территории США и Мексики. Пустыня Сонора, Мексика."
        },
        "coordinates": {
            "latitude": 32.24909,
            "longitude": -112.9164
        },
        "dynamicWallpapers": [
            {
                "serviceName": ".dioramas.mexico.wallpapers.MexicoWallpaper"
            }
        ],
        "staticWallpapers": [
            {
                "remoteUrl": "p3_mexico_preview"
            }
        ],
        "parentId": 3,
        "categoryId": 2,
        "author": "Google"
    },
    {
        "shortName": {
            "en": "Groove",
            "ru": "В такт музыке"
        },
        "description": {
            "en": "Pixel moves to the music...your music. When music is playing, you’ll see colors shift and sway to the rhythm.",
            "ru": "Слушайте музыку и смотрите, как цветные волны перемещаются по экрану и танцуют в такт."
        },
        "dynamicWallpapers": [
            {
                "previewName": {
                    "en": "Groove, Chill",
                    "ru": "В такт музыке: спокойствие"
                },
                "shortName": null,
                "serviceName": ".soundviz.wallpaper.variations.SoundVizWallpaperV1",
                "previewRes": "p3_sound_viz_v1_preview"
            },
            {
                "previewName": {
                    "en": "Groove, Party",
                    "ru": "В такт музыке: веселье"
                },
                "shortName": null,
                "serviceName": ".soundviz.wallpaper.variations.SoundVizWallpaperV2",
                "previewRes": "p3_sound_viz_v2_preview"
            },
            {
                "previewName": {
                    "en": "Groove, After Dark",
                    "ru": "В такт музыке: сумерки"
                },
                "shortName": null,
                "serviceName": ".soundviz.wallpaper.variations.SoundVizWallpaperV4",
                "previewRes": "p3_sound_viz_v3_preview"
            }
        ],
        "staticWallpapers": [
            {
                "previewName": {
                    "en": "Groove, Chill",
                    "ru": "В такт музыке: спокойствие"
                },
                "shortName": null,
                "remoteUrl": "p3_sound_viz_v1_preview",
                "previewRes": "p3_sound_viz_v1_preview"
            },
            {
                "previewName": {
                    "en": "Groove, Party",
                    "ru": "В такт музыке: веселье"
                },
                "shortName": null,
                "remoteUrl": "p3_sound_viz_v2_preview",
                "previewRes": "p3_sound_viz_v2_preview"
            },
            {
                "previewName": {
                    "en": "Groove, After Dark",
                    "ru": "В такт музыке: сумерки"
                },
                "shortName": null,
                "remoteUrl": "p3_sound_viz_v3_preview",
                "previewRes": "p3_sound_viz_v3_preview"
            }
        ],
        "parentId": 3,
        "categoryId": 3,
        "author": "Google"
    },
    {
        "shortName": {
            "en": "City Silhouette",
            "ru": "Городской пейзаж"
        },
        "description": {
            "en": "Watch the City that Never Sleeps change dynamically throughout the day and night. New York, United States",
            "ru": "Город, который никогда не спит. Наблюдайте за сменой дня и ночи в Нью-Йорке."
        },
        "dynamicWallpapers": [
            {
                "previewName": {
                    "en": "City Silhouette, New York",
                    "ru": "Городской пейзаж: Нью-Йорк"
                },
                "shortName": null,
                "serviceName": ".cities.wallpapers.variations.NewYorkWallpaper",
                "previewRes": "p3_cities_v2_preview",
                "coordinates": {
                    "latitude": 40.71302,
                    "longitude": -73.99754
                }
            },
            {
                "previewName": {
                    "en": "City Silhouette, San Francisco",
                    "ru": "Городской пейзаж: Сан-Франциско"
                },
                "shortName": null,
                "serviceName": ".cities.wallpapers.variations.SanFranciscoWallpaper",
                "previewRes": "p3_cities_v1_preview",
                "coordinates": {
                    "latitude": 37.773438,
                    "longitude": -122.46176
                }
            }
        ],
        "staticWallpapers": [
            {
                "previewName": {
                    "en": "City Silhouette, New York",
                    "ru": "Городской пейзаж: Нью-Йорк"
                },
                "shortName": null,
                "remoteUrl": "p3_cities_v2_preview",
                "previewRes": "p3_cities_v2_preview",
                "coordinates": {
                    "latitude": 40.71302,
                    "longitude": -73.99754
                }
            },
            {
                "previewName": {
                    "en": "City Silhouette, San Francisco",
                    "ru": "Городской пейзаж: Сан-Франциско"
                },
                "shortName": null,
                "remoteUrl": "p3_cities_v1_preview",
                "previewRes": "p3_cities_v1_preview",
                "coordinates": {
                    "latitude": 37.773438,
                    "longitude": -122.46176
                }
            }
        ],
        "parentId": 3,
        "categoryId": 1,
        "author": "Google"
    },
    {
        "shortName": {
            "en": "A Drop in the Ocean",
            "ru": "Капля в море"
        },
        "description": {
            "en": "Feel the current of the world around you, with bodies of water and terrain taking on a watercolor form.",
            "ru": "Мир вокруг перетекает в абстрактный акварельный пейзаж."
        },
        "dynamicWallpapers": [
            {
                "previewName": {
                    "en": "A Drop in the Ocean, Coral",
                    "ru": "Капля в море: коралл"
                },
                "shortName": null,
                "serviceName": ".surfandturf.wallpapers.variations.SurfAndTurfWallpaperV1",
                "previewRes": "p3_surf_and_turf_v1_preview"
            },
            {
                "previewName": {
                    "en": "A Drop in the Ocean, Seaweed",
                    "ru": "Капля в море: водоросли"
                },
                "shortName": null,
                "serviceName": ".surfandturf.wallpapers.variations.SurfAndTurfWallpaperV2",
                "previewRes": "p3_surf_and_turf_v2_preview"
            },
            {
                "previewName": {
                    "en": "A Drop in the Ocean, Waves",
                    "ru": "Капля в море: волны"
                },
                "shortName": null,
                "serviceName": ".surfandturf.wallpapers.variations.SurfAndTurfWallpaperV3",
                "previewRes": "p3_surf_and_turf_v3_preview"
            }
        ],
        "staticWallpapers": [
            {
                "previewName": {
                    "en": "A Drop in the Ocean, Coral",
                    "ru": "Капля в море: коралл"
                },
                "shortName": null,
                "remoteUrl": "p3_surf_and_turf_v1_preview",
                "previewRes": "p3_surf_and_turf_v1_preview"
            },
            {
                "previewName": {
                    "en": "A Drop in the Ocean, Seaweed",
                    "ru": "Капля в море: водоросли"
                },
                "shortName": null,
                "remoteUrl": "p3_surf_and_turf_v2_preview",
                "previewRes": "p3_surf_and_turf_v2_preview"
            },
            {
                "previewName": {
                    "en": "A Drop in the Ocean, Waves",
                    "ru": "Капля в море: волны"
                },
                "shortName": null,
                "remoteUrl": "p3_surf_and_turf_v3_preview",
                "previewRes": "p3_surf_and_turf_v3_preview"
            }
        ],
        "parentId": 3,
        "categoryId": 3,
        "author": "Google"
    },
    {
        "previewName": {
            "en": "New Horizons",
            "ru": "Новые горизонты"
        },
        "previewRes": "p3_pluto_preview",
        "shortName": {
            "en": "New Horizons",
            "ru": "Новые горизонты"
        },
        "description": {
            "en": "Pluto shows its two faces. Enjoy rich red tones during the day, and a mysterious blue brilliance at night.",
            "ru": "Два лица Плутона: красные тона днем и загадочный голубой блеск ночью."
        },
        "dynamicWallpapers": [
            {
                "serviceName": ".celestialBodies.wallpapers.variations.PlutoWallpaperService"
            }
        ],
        "staticWallpapers": [
            {
                "remoteUrl": "p3_pluto_preview"
            }
        ],
        "parentId": 3,
        "categoryId": 0,
        "author": "Google"
    },
    {
        "shortName": {
            "en": "Pixie",
            "ru": "Пикси"
        },
        "description": {
            "en": "Your playful guide awaits. Pixie magically appears when your phone is at rest and goes on a journey when you unlock your phone.",
            "ru": "Ваш забавный компаньон ждет вас. Он появляется из ниоткуда, когда ваш телефон отдыхает. Разблокируйте экран, и Пикси исчезнет."
        },
        "dynamicWallpapers": [
            {
                "previewName": {
                    "en": "Pixie, Cobalt",
                    "ru": "Пикси: кобальтовый"
                },
                "shortName": null,
                "serviceName": ".miniman.wallpaper.variations.MinimanWallpaperV1",
                "previewRes": "p3_miniman_viz_v1_preview"
            },
            {
                "previewName": {
                    "en": "Pixie, Periwinkle",
                    "ru": "Пикси: фиолетово-голубой"
                },
                "shortName": null,
                "serviceName": ".miniman.wallpaper.variations.MinimanWallpaperV2",
                "previewRes": "p3_miniman_viz_v2_preview"
            },
            {
                "previewName": {
                    "en": "Pixie, Emerald",
                    "ru": "Пикси: изумрудный"
                },
                "shortName": null,
                "serviceName": ".miniman.wallpaper.variations.MinimanWallpaperV3",
                "previewRes": "p3_miniman_viz_v3_preview"
            }
        ],
        "staticWallpapers": [
            {
                "previewName": {
                    "en": "Pixie, Cobalt",
                    "ru": "Пикси: кобальтовый"
                },
                "shortName": null,
                "remoteUrl": "p3_miniman_viz_v1_preview",
                "previewRes": "p3_miniman_viz_v1_preview"
            },
            {
                "previewName": {
                    "en": "Pixie, Periwinkle",
                    "ru": "Пикси: фиолетово-голубой"
                },
                "shortName": null,
                "remoteUrl": "p3_miniman_viz_v2_preview",
                "previewRes": "p3_miniman_viz_v2_preview"
            },
            {
                "previewName": {
                    "en": "Pixie, Emerald",
                    "ru": "Пикси: изумрудный"
                },
                "shortName": null,
                "remoteUrl": "p3_miniman_viz_v3_preview",
                "previewRes": "p3_miniman_viz_v3_preview"
            }
        ],
        "parentId": 3,
        "categoryId": 3,
        "author": "Laura Dumitru"
    },
    {
        "previewName": {
            "en": "Bird’s-Eye View, Zion National Park",
            "ru": "С высоты птичьего полета: Национальный парк Зайон"
        },
        "previewRes": "p3_utah_preview",
        "shortName": {
            "en": "Bird’s-Eye View",
            "ru": "С высоты птичьего полета"
        },
        "description": {
            "en": "Take a glimpse of Zion National Park’s vermillion cliffs, reaching up to 2,200 feet. Zion National Park, Utah, United States",
            "ru": "Взгляните на ярко-красные скалы, достигающие высоты 700 метров. Национальный парк Зайон в штате Юта, США."
        },
        "coordinates": {
            "latitude": 37.426994,
            "longitude": -113.02968
        },
        "dynamicWallpapers": [
            {
                "serviceName": ".dioramas.utah.wallpapers.UtahWallpaper"
            }
        ],
        "staticWallpapers": [
            {
                "remoteUrl": "p3_utah_preview"
            }
        ],
        "parentId": 3,
        "categoryId": 2,
        "author": "Google"
    },
    {
        "shortName": {
            "en": "Bloom",
            "ru": "Цветение"
        },
        "description": {
            "en": "Feel the burst when you touch your screen. Your wallpaper also responds to notifications, unlocking, and more.",
            "ru": "Коснитесь экрана, и вы увидите салют. Обои также реагируют на уведомления, разблокировку экрана и многое другое."
        },
        "dynamicWallpapers": [
            {
                "previewName": {
                    "en": "Bloom, Sunrise",
                    "ru": "Цветение: восход"
                },
                "shortName": null,
                "serviceName": ".tactile.wallpapers.TactileWallpaperV3",
                "previewRes": "p3_tactile_v2_preview"
            },
            {
                "previewName": {
                    "en": "Bloom, Cloud",
                    "ru": "Цветение: облако"
                },
                "shortName": null,
                "serviceName": ".tactile.wallpapers.TactileWallpaperV1",
                "previewRes": "p3_tactile_v1_preview"
            },
            {
                "previewName": {
                    "en": "Bloom, Sky",
                    "ru": "Цветение: небо"
                },
                "shortName": null,
                "serviceName": ".tactile.wallpapers.TactileWallpaperV5",
                "previewRes": "p3_tactile_v3_preview"
            },
            {
                "previewName": {
                    "en": "Burst, Forest",
                    "ru": "Салют: лес"
                },
                "shortName": null,
                "serviceName": ".tactile.wallpapers.TactileWallpaperV9",
                "previewRes": "p3_tactile_v4_preview"
            },
            {
                "previewName": {
                    "en": "Burst, Midnight",
                    "ru": "Салют: полночь"
                },
                "shortName": null,
                "serviceName": ".tactile.wallpapers.TactileWallpaperV11",
                "previewRes": "p3_tactile_v5_preview"
            },
            {
                "previewName": {
                    "en": "Burst, Dusk",
                    "ru": "Салют: закат"
                },
                "shortName": null,
                "serviceName": ".tactile.wallpapers.TactileWallpaperV12",
                "previewRes": "p3_tactile_v6_preview"
            }
        ],
        "staticWallpapers": [
            {
                "previewName": {
                    "en": "Bloom, Sunrise",
                    "ru": "Цветение: восход"
                },
                "shortName": null,
                "remoteUrl": "p3_tactile_v2_preview",
                "previewRes": "p3_tactile_v2_preview"
            },
            {
                "previewName": {
                    "en": "Bloom, Cloud",
                    "ru": "Цветение: облако"
                },
                "shortName": null,
                "remoteUrl": "p3_tactile_v1_preview",
                "previewRes": "p3_tactile_v1_preview"
            },
            {
                "previewName": {
                    "en": "Bloom, Sky",
                    "ru": "Цветение: небо"
                },
                "shortName": null,
                "remoteUrl": "p3_tactile_v3_preview",
                "previewRes": "p3_tactile_v3_preview"
            },
            {
                "previewName": {
                    "en": "Burst, Forest",
                    "ru": "Салют: лес"
                },
                "shortName": null,
                "remoteUrl": "p3_tactile_v4_preview",
                "previewRes": "p3_tactile_v4_preview"
            },
            {
                "previewName": {
                    "en": "Burst, Midnight",
                    "ru": "Салют: полночь"
                },
                "shortName": null,
                "remoteUrl": "p3_tactile_v5_preview",
                "previewRes": "p3_tactile_v5_preview"
            },
            {
                "previewName": {
                    "en": "Burst, Dusk",
                    "ru": "Салют: закат"
                },
                "shortName": null,
                "remoteUrl": "p3_tactile_v6_preview",
                "previewRes": "p3_tactile_v6_preview"
            }
        ],
        "parentId": 3,
        "categoryId": 3,
        "author": "Google"
    },
    {
        "previewName": {
            "en": "Light the Way, Schwyz",
            "ru": "Свет в пути: Швиц"
        },
        "previewRes": "p3_switzerland_preview",
        "shortName": {
            "en": "Light the Way",
            "ru": "Свет в пути"
        },
        "description": {
            "en": "Escape to the small town of Schwyz, surrounded by the Alps, where the houses come alive at night. Schwyz, Switzerland",
            "ru": "Укройтесь от посторонних глаз в альпийском городке Швиц, где дома оживают с наступлением ночи. Швиц, Швейцария."
        },
        "coordinates": {
            "latitude": 47.062717,
            "longitude": 8.650598
        },
        "dynamicWallpapers": [
            {
                "serviceName": ".dioramas.switzerland.wallpapers.SwitzerlandWallpaper"
            }
        ],
        "staticWallpapers": [
            {
                "remoteUrl": "p3_switzerland_preview"
            }
        ],
        "parentId": 3,
        "categoryId": 2,
        "author": "Google"
    },
    {
        "previewName": {
            "en": "Tropical Voyage, Malolo Barrier Reef",
            "ru": "Тропическое путешествие: барьерный риф Малоло"
        },
        "previewRes": "p3_fiji_preview",
        "shortName": {
            "en": "Tropical Voyage",
            "ru": "Тропическое путешествие"
        },
        "description": {
            "en": "Dive into the Malolo Barrier Reef, known for its world-class snorkeling, as boats cruise on by. Malolo Barrier Reef, Fiji",
            "ru": "Полюбуйтесь барьерным рифом Малоло, одним из лучших мест для сноркелинга, и проплывающими мимо корабликами. Барьерный риф Малоло, Фиджи."
        },
        "coordinates": {
            "latitude": -17.792616,
            "longitude": 177.11627
        },
        "dynamicWallpapers": [
            {
                "serviceName": ".dioramas.fiji.wallpapers.FijiWallpaper"
            }
        ],
        "staticWallpapers": [
            {
                "remoteUrl": "p3_fiji_preview"
            }
        ],
        "parentId": 3,
        "categoryId": 2,
        "author": "Google"
    },
    {
        "shortName": {
            "en": "Bubble Up",
            "ru": "Цветные пузыри"
        },
        "description": {
            "en": "Colors bounce around the screen as you touch or tilt your phone. Keep an eye out for extra moments of bubbly delight.",
            "ru": "Коснитесь экрана или покачайте телефон – цветные пузыри начнут перемещаться по экрану и радовать вас."
        },
        "dynamicWallpapers": [
            {
                "previewName": {
                    "en": "Bubble Up, Peach",
                    "ru": "Цветные пузыри: персик"
                },
                "shortName": null,
                "serviceName": ".delight.wallpapers.DelightWallpaperV1",
                "previewRes": "p3_delight_v1_preview"
            },
            {
                "previewName": {
                    "en": "Bubble Up, Lemon",
                    "ru": "Цветные пузыри: лимон"
                },
                "shortName": null,
                "serviceName": ".delight.wallpapers.DelightWallpaperV2",
                "previewRes": "p3_delight_v2_preview"
            },
            {
                "previewName": {
                    "en": "Bubble Up, Plum",
                    "ru": "Цветные пузыри: слива"
                },
                "shortName": null,
                "serviceName": ".delight.wallpapers.DelightWallpaperV4",
                "previewRes": "p3_delight_v3_preview"
            }
        ],
        "staticWallpapers": [
            {
                "previewName": {
                    "en": "Bubble Up, Peach",
                    "ru": "Цветные пузыри: персик"
                },
                "shortName": null,
                "remoteUrl": "p3_delight_v1_preview",
                "previewRes": "p3_delight_v1_preview"
            },
            {
                "previewName": {
                    "en": "Bubble Up, Lemon",
                    "ru": "Цветные пузыри: лимон"
                },
                "shortName": null,
                "remoteUrl": "p3_delight_v2_preview",
                "previewRes": "p3_delight_v2_preview"
            },
            {
                "previewName": {
                    "en": "Bubble Up, Plum",
                    "ru": "Цветные пузыри: слива"
                },
                "shortName": null,
                "remoteUrl": "p3_delight_v3_preview",
                "previewRes": "p3_delight_v3_preview"
            }
        ],
        "parentId": 3,
        "categoryId": 3,
        "author": "Google"
    },
    {
        "previewName": {
            "en": "Tarout Bay, Saudi Arabia",
            "ru": "Тарут (Саудовская Аравия)"
        },
        "previewRes": "p4_arabia_preview",
        "shortName": {
            "en": "Tarout Bay",
            "ru": "Тарут"
        },
        "description": {
            "en": "Fluffy clouds slowly wash over Tarout Bay, one of the most ancient sites of human civilization in the Arabian Peninsula.",
            "ru": "Пушистые облака медленно плывут над островом Тарут – одним из древнейших обитаемых мест на Аравийском полуострове."
        },
        "coordinates": {
            "latitude": 26.595383,
            "longitude": 50.124588
        },
        "dynamicWallpapers": [
            {
                "serviceName": ".dioramas.arabia.wallpapers.ArabiaWallpaper"
            }
        ],
        "staticWallpapers": [
            {
                "remoteUrl": "p4_arabia_preview"
            }
        ],
        "parentId": 4,
        "categoryId": 2,
        "author": "Google"
    },
    {
        "previewName": {
            "en": "Compass",
            "ru": "Компас"
        },
        "previewRes": "p4_compass_preview",
        "shortName": {
            "en": "Compass",
            "ru": "Компас"
        },
        "description": {
            "en": "Pick a location, and let the compass show you the way.",
            "ru": "Выберите направление, и пусть компас укажет вам путь."
        },
        "dynamicWallpapers": [
            {
                "serviceName": ".compass.wallpaper.variations.CompassWallpaperV1"
            }
        ],
        "staticWallpapers": [
            {
                "remoteUrl": "p4_compass_preview"
            }
        ],
        "parentId": 4,
        "categoryId": 3,
        "author": "Google"
    },
    {
        "previewName": {
            "en": "Doodle",
            "ru": "Рисунок"
        },
        "previewRes": "p4_doodle_preview",
        "shortName": {
            "en": "Doodle",
            "ru": "Рисунок"
        },
        "description": {
            "en": "Tap, drag, fling! This wallpaper is yours to create. Tap customize to explore and start fresh.",
            "ru": "Водите пальцами по экрану, нажимайте и перетаскивайте! Создайте свои собственные обои. Чтобы начать, нажмите \"Настроить\"."
        },
        "dynamicWallpapers": [
            {
                "serviceName": ".doodle.wallpaper.variations.DoodleWallpaperV1"
            }
        ],
        "staticWallpapers": [
            {
                "remoteUrl": "p4_doodle_v1_black"
            }
        ],
        "parentId": 4,
        "categoryId": 3,
        "author": "Google"
    },
    {
        "shortName": {
            "en": "Garden",
            "ru": "Сад"
        },
        "description": {
            "en": "Take a moment to rest and enjoy these rustling leaves. Artwork in collaboration with Anna Kövecses.",
            "ru": "Отложите дела и насладитесь отдыхом под шум листвы. Создано в сотрудничестве с Анной Ковекзес."
        },
        "dynamicWallpapers": [
            {
                "previewName": {
                    "en": "Garden: Leafy",
                    "ru": "Сад: листья"
                },
                "shortName": null,
                "serviceName": ".garden.wallpaper.variations.GardenWallpaperV1",
                "previewRes": "p4_garden_v1_preview"
            },
            {
                "previewName": {
                    "en": "Garden: Rocky",
                    "ru": "Сад: камни"
                },
                "shortName": null,
                "serviceName": ".garden.wallpaper.variations.GardenWallpaperV2",
                "previewRes": "p4_garden_v2_preview"
            },
            {
                "previewName": {
                    "en": "Garden: Prickly",
                    "ru": "Сад: колючки"
                },
                "shortName": null,
                "serviceName": ".garden.wallpaper.variations.GardenWallpaperV3",
                "previewRes": "p4_garden_v3_preview"
            }
        ],
        "staticWallpapers": [
            {
                "previewName": {
                    "en": "Garden: Leafy",
                    "ru": "Сад: листья"
                },
                "shortName": null,
                "remoteUrl": "p4_garden_v1_preview",
                "previewRes": "p4_garden_v1_preview"
            },
            {
                "previewName": {
                    "en": "Garden: Rocky",
                    "ru": "Сад: камни"
                },
                "shortName": null,
                "remoteUrl": "p4_garden_v2_preview",
                "previewRes": "p4_garden_v2_preview"
            },
            {
                "previewName": {
                    "en": "Garden: Prickly",
                    "ru": "Сад: колючки"
                },
                "shortName": null,
                "remoteUrl": "p4_garden_v3_preview",
                "previewRes": "p4_garden_v3_preview"
            }
        ],
        "parentId": 4,
        "categoryId": 3,
        "author": "Anna Kövecses"
    },
    {
        "previewName": {
            "en": "Sights From The Sun",
            "ru": "Солнечная система"
        },
        "previewRes": "p4_sights_preview",
        "shortName": {
            "en": "Sights From The Sun",
            "ru": "Солнечная система"
        },
        "description": {
            "en": "Follow along the dance of planets and moons, from the best seat there is: the center of the Solar System.",
            "ru": "Солнце – идеальное место, чтобы наблюдать завораживающий танец планет и их спутников."
        },
        "dynamicWallpapers": [
            {
                "serviceName": ".sights.wallpapers.variations.SightsWallpaperV1"
            }
        ],
        "staticWallpapers": [
            {
                "remoteUrl": "p4_sights_v1_preview"
            }
        ],
        "parentId": 4,
        "categoryId": 0,
        "author": "Google"
    },
    {
        "previewName": {
            "en": "Mount Pilatus, Switzerland",
            "ru": "Пилатус (Швейцария)"
        },
        "previewRes": "p4_switzerland_preview",
        "shortName": {
            "en": "Mount Pilatus",
            "ru": "Пилатус"
        },
        "description": {
            "en": "Watch as birds glide along the incline of Mount Pilatus, a mountain massif overlooking Lucerne in Central Switzerland",
            "ru": "Наблюдайте за полетом птиц вдоль склонов горного массива Пилатус в швейцарских Альпах, откуда открывается захватывающий вид на город Люцерн."
        },
        "coordinates": {
            "latitude": 46.980026,
            "longitude": 8.25493
        },
        "dynamicWallpapers": [
            {
                "serviceName": ".dioramas.switzerland.wallpapers.SwitzerlandWallpaper"
            }
        ],
        "staticWallpapers": [
            {
                "remoteUrl": "p4_switzerland_preview"
            }
        ],
        "parentId": 4,
        "categoryId": 2,
        "author": "Google"
    },
    {
        "previewName": {
            "en": "Uluru, Australia",
            "ru": "Улуру (Австралия)"
        },
        "previewRes": "p4_uluru_preview",
        "shortName": {
            "en": "Uluru",
            "ru": "Улуру"
        },
        "description": {
            "en": "Marvel at one of Australia’s most recognisable natural landmarks, Uluru / Ayers Rock.",
            "ru": "Полюбуйтесь на скалу Улуру (Айерс Рок) – одну из самых узнаваемых природных достопримечательностей Австралии."
        },
        "coordinates": {
            "latitude": -25.343834,
            "longitude": 131.03667
        },
        "dynamicWallpapers": [
            {
                "serviceName": ".dioramas.uluru.wallpapers.UluruWallpaper"
            }
        ],
        "staticWallpapers": [
            {
                "remoteUrl": "p4_uluru_preview"
            }
        ],
        "parentId": 4,
        "categoryId": 2,
        "author": "Google"
    },
    {
        "previewName": {
            "en": "Eclipse",
            "ru": "Затмение"
        },
        "previewRes": "p4a_gradient_preview",
        "shortName": {
            "en": "Eclipse",
            "ru": "Затмение"
        },
        "description": {
            "en": "Watch the colors ebb and flow as your battery life changes.",
            "ru": "Наблюдайте за тем, как переливаются цвета в зависимости от уровня заряда батареи вашего устройства."
        },
        "dynamicWallpapers": [
            {
                "serviceName": ".gradient.wallpaper.GradientWallpaper"
            }
        ],
        "staticWallpapers": [
            {
                "remoteUrl": "p4a_gradient_preview"
            }
        ],
        "parentId": 5,
        "categoryId": 3,
        "author": "Google"
    },
    {
        "previewName": {
            "en": "Conveyor Belt",
            "ru": "Конвейерная лента"
        },
        "previewRes": "p5_converyor_preview",
        "shortName": {
            "en": "Conveyor Belt",
            "ru": "Конвейерная лента"
        },
        "description": {
            "en": "Watch as new objects appear, delivered by conveyor belt. Some hint at your phone state, others appear for certain actions.",
            "ru": "На конвейерной ленте появляются новые объекты. Некоторые из них сигнализируют о состоянии вашего телефона, другие касаются выполнения определенных действий."
        },
        "dynamicWallpapers": [
            {
                "serviceName": ".conveyor.wallpaper.ConveyorWallpaper"
            }
        ],
        "staticWallpapers": [
            {
                "remoteUrl": "p5_conveyor_preview"
            }
        ],
        "parentId": 6,
        "categoryId": 3,
        "author": "Google"
    },
    {
        "previewName": {
            "en": "Stepping Stones",
            "ru": "Пирамида из камней"
        },
        "previewRes": "p5_stack_preview",
        "shortName": {
            "en": "Stepping Stones",
            "ru": "Пирамида из камней"
        },
        "description": {
            "en": "This sculpture grows as you unlock your phone. But watch out! It wobbles when your phone tilts.",
            "ru": "Эта пирамида из камней растет, если телефон разблокирован. Будьте осторожны: она качается, когда вы наклоняете устройство."
        },
        "dynamicWallpapers": [
            {
                "serviceName": ".stack.wallpaper.StackWallpaper"
            }
        ],
        "staticWallpapers": [
            {
                "remoteUrl": "p5_stack_preview"
            }
        ],
        "parentId": 6,
        "categoryId": 3,
        "author": "Google"
    },
    {
        "previewName": {
            "en": "Moving Shadows",
            "ru": "Движение теней"
        },
        "previewRes": "p5_sundial_preview",
        "shortName": {
            "en": "Moving Shadows",
            "ru": "Движение теней"
        },
        "description": {
            "en": "Watch sharp shadows transform as the light slowly changes position throughout the day.",
            "ru": "Тени от предметов на экране изменяются по мере движения солнца в течение дня."
        },
        "dynamicWallpapers": [
            {
                "serviceName": ".sundial.wallpaper.SundialWallpaper"
            }
        ],
        "staticWallpapers": [
            {
                "remoteUrl": "p5_sundial_preview"
            }
        ],
        "parentId": 6,
        "categoryId": 3,
        "author": "Google"
    },
    {
        "previewName": {
            "en": "Pinball",
            "ru": "Пинбол"
        },
        "previewRes": "p_pulley_preview",
        "shortName": {
            "en": "Pinball",
            "ru": "Пинбол"
        },
        "description": {
            "en": "Tilt, tap, or swipe to make the circles move. Inspired by classic pinball.",
            "ru": "Чтобы круги двигались, наклоняйте устройство, нажимайте на обои или проводите по ним."
        },
        "dynamicWallpapers": [
            {
                "serviceName": ".wallpaper.PulleyWallpaper"
            }
        ],
        "staticWallpapers": [
            {
                "remoteUrl": "p_pulley_preview"
            }
        ],
        "parentId": 0,
        "categoryId": 3,
        "author": "Google"
    },
    {
        "previewName": {
            "en": "Blooming Botanicals",
            "ru": "Цветущие Растения"
        },
        "shortName": {
            "en": "Blooming Botanicals",
            "ru": "Цветущие Растения"
        },
        "description": {
            "en": "Bloom one by one. Grow together.",
            "ru": "Цветут один за другим. Растут вместе."
        },
        "dynamicWallpapers": [
            {
                "serviceName": ".parallaxflower.multiflower.bloomingbotanicals.BloomingBotanicalsWallpaperService",
                "previewRes": "p6_blooming_botanicals_v1_preview"
            }
        ],
        "staticWallpapers": [
            {
                "remoteUrl": "p6_blooming_botanicals_v1_preview",
                "previewRes": "p6_blooming_botanicals_v1_preview"
            },
            {
                "remoteUrl": "p6_blooming_botanicals_v2_preview",
                "previewRes": "p6_blooming_botanicals_v2_preview"
            },
            {
                "remoteUrl": "p6_blooming_botanicals_v3_preview",
                "previewRes": "p6_blooming_botanicals_v3_preview"
            },
            {
                "remoteUrl": "p6_blooming_botanicals_v4_preview",
                "previewRes": "p6_blooming_botanicals_v4_preview"
            },
            {
                "remoteUrl": "p6_blooming_botanicals_v5_preview",
                "previewRes": "p6_blooming_botanicals_v5_preview"
            },
            {
                "remoteUrl": "p6_blooming_botanicals_v6_preview",
                "previewRes": "p6_blooming_botanicals_v6_preview"
            }
        ],
        "parentId": 7,
        "categoryId": 4,
        "author": "Andrew Zuckerman"
    },
    {
        "previewName": {
            "en": "Bright Blooms",
            "ru": "Яркие Цветы"
        },
        "shortName": {
            "en": "Bright Blooms",
            "ru": "Яркие Цветы"
        },
        "description": {
            "en": "Bloom one by one. Grow together.",
            "ru": "Цветут один за другим. Растут вместе."
        },
        "dynamicWallpapers": [
            {
                "serviceName": ".parallaxflower.multiflower.brightblooms.BrightBloomsWallpaperService",
                "previewRes": "p6_blooms_v1_preview"
            }
        ],
        "staticWallpapers": [
            {
                "remoteUrl": "p6_blooms_v1_preview",
                "previewRes": "p6_blooms_v1_preview"
            },
            {
                "remoteUrl": "p6_blooms_v2_preview",
                "previewRes": "p6_blooms_v2_preview"
            },
            {
                "remoteUrl": "p6_blooms_v3_preview",
                "previewRes": "p6_blooms_v3_preview"
            },
            {
                "remoteUrl": "p6_blooms_v4_preview",
                "previewRes": "p6_blooms_v4_preview"
            },
            {
                "remoteUrl": "p6_blooms_v5_preview",
                "previewRes": "p6_blooms_v5_preview"
            },
            {
                "remoteUrl": "p6_blooms_v6_preview",
                "previewRes": "p6_blooms_v6_preview"
            }
        ],
        "parentId": 7,
        "categoryId": 4,
        "author": "Andrew Zuckerman"
    },
    {
        "previewName": {
            "en": "Landscapes",
            "ru": "Пейзажи"
        },
        "shortName": {
            "en": "Landscapes",
            "ru": "Пейзажи"
        },
        "description": {
            "en": "Vast landscapes transform into a tapestry of colors.",
            "ru": "Обширные пейзажи превращаются в разноцветный гобелен."
        },
        "staticWallpapers": [
            {
                "remoteUrl": "p6a_landscapes_v1_light_preview",
                "previewRes": "p6a_landscapes_v1_light_preview"
            },
            {
                "remoteUrl": "p6a_landscapes_v1_dark_preview",
                "previewRes": "p6a_landscapes_v1_dark_preview"
            },
            {
                "remoteUrl": "p6a_landscapes_v2_light_preview",
                "previewRes": "p6a_landscapes_v2_light_preview"
            },
            {
                "remoteUrl": "p6a_landscapes_v2_dark_preview",
                "previewRes": "p6a_landscapes_v2_dark_preview"
            },
            {
                "remoteUrl": "p6a_landscapes_v3_light_preview",
                "previewRes": "p6a_landscapes_v3_light_preview"
            },
            {
                "remoteUrl": "p6a_landscapes_v3_dark_preview",
                "previewRes": "p6a_landscapes_v3_dark_preview"
            }
        ],
        "parentId": 9,
        "categoryId": 2,
        "author": "Google"
    },
    {
        "previewName": {
            "en": "Florals",
            "ru": "Цветочные композиции"
        },
        "shortName": {
            "en": "Florals",
            "ru": "Цветочные композиции"
        },
        "description": {
            "en": "Elegant lines form an arrangement of faded florals.",
            "ru": "Элегантные линии образуют композицию из увядших цветов."
        },
        "staticWallpapers": [
            {
                "remoteUrl": "p6a_floral_v1_light_preview",
                "previewRes": "p6a_floral_v1_light_preview"
            },
            {
                "remoteUrl": "p6a_floral_v1_dark_preview",
                "previewRes": "p6a_floral_v1_dark_preview"
            },
            {
                "remoteUrl": "p6a_floral_v2_light_preview",
                "previewRes": "p6a_floral_v2_light_preview"
            },
            {
                "remoteUrl": "p6a_floral_v2_dark_preview",
                "previewRes": "p6a_floral_v2_dark_preview"
            },
            {
                "remoteUrl": "p6a_floral_v3_light_preview",
                "previewRes": "p6a_floral_v3_light_preview"
            },
            {
                "remoteUrl": "p6a_floral_v3_dark_preview",
                "previewRes": "p6a_floral_v3_dark_preview"
            }
        ],
        "parentId": 9,
        "categoryId": 4,
        "author": "Google"
    },
    {
        "previewName": {
            "en": "Cockatoo",
            "ru": "Какаду"
        },
        "shortName": {
            "en": "Cockatoo",
            "ru": "Какаду"
        },
        "description": {
            "en": "Notable, Cockatoo lives only in Australia and New Guinea. And now in lives in your phone.",
            "ru": "Примечательно, Какаду живет только в Австралии и Новой Гвинее. Теперь она живет и в вашем телефоне."
        },
        "staticWallpapers": [
            {
                "remoteUrl": "p7_pro_snow_light_preview",
                "previewRes": "p7_pro_snow_light_preview"
            },
            {
                "remoteUrl": "p7_pro_snow_dark_preview",
                "previewRes": "p7_pro_snow_dark_preview"
            }
        ],
        "parentId": 10,
        "categoryId": 5,
        "author": "Andrew Zuckerman"
    },
    {
        "previewName": {
            "en": "Pied crow",
            "ru": "Пестрая ворона"
        },
        "shortName": {
            "en": "Pied crow",
            "ru": "Пестрая ворона"
        },
        "description": {
            "en": "The gait of Pied Crow is serious and full of delight, but at the same time light and fast.",
            "ru": "Походка Пестрого Ворона серьёзна и полна достоинства, но при этом легка и быстра."
        },
        "staticWallpapers": [
            {
                "remoteUrl": "p7_pro_obsidian_light_preview",
                "previewRes": "p7_pro_obsidian_light_preview"
            },
            {
                "remoteUrl": "p7_pro_obsidian_dark_preview",
                "previewRes": "p7_pro_obsidian_dark_preview"
            },
            {
                "remoteUrl": "p7_obsidian_light_preview",
                "previewRes": "p7_obsidian_light_preview"
            },
            {
                "remoteUrl": "p7_obsidian_dark_preview",
                "previewRes": "p7_obsidian_dark_preview"
            }
        ],
        "parentId": 10,
        "categoryId": 5,
        "author": "Andrew Zuckerman"
    },
    {
        "previewName": {
            "en": "Green-winged macaw",
            "ru": "Зеленокрылый ара"
        },
        "shortName": {
            "en": "Green-winged macaw",
            "ru": "Зеленокрылый ара"
        },
        "description": {
            "en": "Green-winged macaws are one of the most colored birds. Although, they're invisible in the foliage of trees.",
            "ru": "Зеленокрылые ара одни из самых цветастых птиц. Несмотря на это, они невидимы в листве деревьев."
        },
        "staticWallpapers": [
            {
                "remoteUrl": "p7_pro_lemongrass_light_preview",
                "previewRes": "p7_pro_lemongrass_light_preview"
            },
            {
                "remoteUrl": "p7_pro_lemongrass_dark_preview",
                "previewRes": "p7_pro_lemongrass_dark_preview"
            }
        ],
        "parentId": 10,
        "categoryId": 5,
        "author": "Andrew Zuckerman"
    },
    {
        "previewName": {
            "en": "Azure Jay",
            "ru": "Лазурная сойка"
        },
        "shortName": {
            "en": "Azure Jay",
            "ru": "Лазурная сойка"
        },
        "description": {
            "en": "Azure jays have their own language. These are trained birds that have 14 cries in their repertoire for various purposes.",
            "ru": "Лазурные сойки имеют свой собственный язык. Это обучаемые птицы, имеющие в своём репертуаре для различных целей 14 криков."
        },
        "staticWallpapers": [
            {
                "remoteUrl": "p7_snow_light_preview",
                "previewRes": "p7_snow_light_preview"
            },
            {
                "remoteUrl": "p7_snow_dark_preview",
                "previewRes": "p7_snow_dark_preview"
            }
        ],
        "parentId": 10,
        "categoryId": 5,
        "author": "Andrew Zuckerman"
    },
    {
        "previewName": {
            "en": "Seagull",
            "ru": "Чайка"
        },
        "shortName": {
            "en": "Seagull",
            "ru": "Чайка"
        },
        "description": {
            "en": "The seagulls are universal. They are the least specialised of all the seabirds, and their body allows for equal adeptness in swimming, flying, and walking.",
            "ru": "Чайки - универсальны. Они наименее специализированы из всех морских птиц, и их тело позволяет одинаково хорошо плавать, летать и ходить."
        },
        "staticWallpapers": [
            {
                "remoteUrl": "p7_haze_light_preview",
                "previewRes": "p7_haze_light_preview"
            },
            {
                "remoteUrl": "p7_haze_dark_preview",
                "previewRes": "p7_haze_dark_preview"
            }
        ],
        "parentId": 10,
        "categoryId": 5,
        "author": "Andrew Zuckerman"
    },
    {
        "previewName": {
            "en": "Flamingo Flower",
            "ru": "Антуриум"
        },
        "previewRes": "p6_ext_flamingo_flower_preview",
        "shortName": {
            "en": "Flamingo Flower",
            "ru": "Антуриум"
        },
        "description": {
            "en": "Bloom one by one. Grow together.",
            "ru": "Цветут один за другим. Растут вместе."
        },
        "dynamicWallpapers": [
            {
                "serviceName": ".flamingoflower.FlamingoFlowerWallpaperService",
                "performance": "Demanding"
            }
        ],
        "staticWallpapers": [
            {
                "remoteUrl": "p6_ext_flamingo_flower_preview"
            }
        ],
        "parentId": 8,
        "categoryId": 4,
        "author": "Andrew Zuckerman"
    },
    {
        "previewName": {
            "en": "Persian Buttercup",
            "ru": "Лютик азиатский"
        },
        "previewRes": "p6_ext_persian_buttercup_preview",
        "shortName": {
            "en": "Persian Buttercup",
            "ru": "Лютик азиатский"
        },
        "description": {
            "en": "Bloom one by one. Grow together.",
            "ru": "Цветут один за другим. Растут вместе."
        },
        "dynamicWallpapers": [
            {
                "serviceName": ".persianbuttercup.PersianButtercupWallpaperService",
                "performance": "Demanding"
            }
        ],
        "staticWallpapers": [
            {
                "remoteUrl": "p6_ext_persian_buttercup_preview"
            }
        ],
        "parentId": 8,
        "categoryId": 4,
        "author": "Andrew Zuckerman"
    },
    {
        "previewName": {
            "en": "Maki Dahlia",
            "ru": "Георгина \"Маки\""
        },
        "previewRes": "p6_ext_maki_dahlia_preview",
        "shortName": {
            "en": "Maki Dahlia",
            "ru": "Георгина \"Маки\""
        },
        "description": {
            "en": "Bloom one by one. Grow together.",
            "ru": "Цветут один за другим. Растут вместе."
        },
        "dynamicWallpapers": [
            {
                "serviceName": ".makidahlia.MakiDahliaWallpaperService",
                "performance": "Demanding"
            }
        ],
        "staticWallpapers": [
            {
                "remoteUrl": "p6_ext_maki_dahlia_preview"
            }
        ],
        "parentId": 8,
        "categoryId": 4,
        "author": "Andrew Zuckerman"
    },
    {
        "previewName": {
            "en": "Boat Orchid",
            "ru": "Цимбидиум"
        },
        "previewRes": "p6_ext_boat_orchid",
        "shortName": {
            "en": "Boat Orchid",
            "ru": "Цимбидиум"
        },
        "description": {
            "en": "Bloom one by one. Grow together.",
            "ru": "Цветут один за другим. Растут вместе."
        },
        "dynamicWallpapers": [
            {
                "serviceName": ".boatorchid.BoatOrchidWallpaperService",
                "performance": "Demanding"
            }
        ],
        "staticWallpapers": [
            {
                "remoteUrl": "p6_ext_boat_orchid_preview"
            }
        ],
        "parentId": 8,
        "categoryId": 4,
        "author": "Andrew Zuckerman"
    },
    {
        "previewName": {
            "en": "Licorice",
            "ru": "Лакрица"
        },
        "previewRes": "pfold_licorice_preview",
        "shortName": {
            "en": "Licorice",
            "ru": "Лакрица"
        },
        "description": {
            "en": "The plumage of elegant birds comes to life as soon as you unlock your phone.",
            "ru": "Оперение элегантных птиц оживает, как только вы разблокируете ваш телефон"
        },
        "dynamicWallpapers": [
            {
                "serviceName": ".licorice.LiveWallpaperService"
            }
        ],
        "staticWallpapers": [
            {
                "remoteUrl": "pfold_licorice_preview"
            }
        ],
        "parentId": 12,
        "categoryId": 5,
        "author": "Andrew Zuckerman"
    },
    {
        "previewName": {
            "en": "Porcelain",
            "ru": "Фарфор"
        },
        "previewRes": "pfold_porcelain_preview",
        "shortName": {
            "en": "Porcelain",
            "ru": "Фарфор"
        },
        "description": {
            "en": "The plumage of elegant birds comes to life as soon as you unlock your phone.",
            "ru": "Оперение элегантных птиц оживает, как только вы разблокируете ваш телефон"
        },
        "dynamicWallpapers": [
            {
                "serviceName": ".pixelfold.LiveWallpaperService"
            }
        ],
        "staticWallpapers": [
            {
                "remoteUrl": "pfold_porcelain_preview"
            }
        ],
        "parentId": 12,
        "categoryId": 5,
        "author": "Andrew Zuckerman"
    },
    {
        "previewName": {
            "en": "Blue-throated macaw",
            "ru": "Синегорлый ара"
        },
        "shortName": {
            "en": "Blue-throated macaw",
            "ru": "Синегорлый ара"
        },
        "description": {
            "en": "The blue-throated macaw is included in the Red Book, it is known for its intelligence and ability to imitate human speech.",
            "ru": "Синегорлый ара включен в Красную книгу, он известен своим интеллектом и способностью подражать человеческой речи."
        },
        "staticWallpapers": [
            {
                "remoteUrl": "p7a_arctic_light_preview",
                "previewRes": "p7a_arctic_light_preview"
            },
            {
                "remoteUrl": "p7a_arctic_dark_preview",
                "previewRes": "p7a_arctic_dark_preview"
            }
        ],
        "parentId": 11,
        "categoryId": 5,
        "author": "Andrew Zuckerman"
    },
    {
        "previewName": {
            "en": "Andrean condor",
            "ru": "Андский кондор"
        },
        "shortName": {
            "en": "Andrean condor",
            "ru": "Андский кондор"
        },
        "description": {
            "en": "The wingspan of the Andean Condor can reach 3 meters, and its weight is 15 kilograms, which makes it one of the largest flying birds in the world.",
            "ru": "Размах крыльев Андского кондора может достигать 3 метров, а вес - 15 килограммов, что делает его одной из самых больших летающих птиц в мире."
        },
        "staticWallpapers": [
            {
                "remoteUrl": "p7a_carbon_light_preview",
                "previewRes": "p7a_carbon_light_preview"
            },
            {
                "remoteUrl": "p7a_carbon_dark_preview",
                "previewRes": "p7a_carbon_dark_preview"
            }
        ],
        "parentId": 11,
        "categoryId": 5,
        "author": "Andrew Zuckerman"
    },
    {
        "previewName": {
            "en": "Grey crowned crane",
            "ru": "Восточный венценосный журавль"
        },
        "shortName": {
            "en": "Crane",
            "ru": "Восточный журавль"
        },
        "description": {
            "en": "The Grey crowned crane is listed in the Red Book, it can take off to a fairly high altitude up to 10,000 meters.",
            "ru": "Восточный венценосный журавль внесен в Красную книгу, он может взлетать на довольно большую высоту до 10 000 метров."
        },
        "staticWallpapers": [
            {
                "remoteUrl": "p7a_cotton_light_preview",
                "previewRes": "p7a_cotton_light_preview"
            },
            {
                "remoteUrl": "p7a_cotton_dark_preview",
                "previewRes": "p7a_cotton_dark_preview"
            }
        ],
        "parentId": 11,
        "categoryId": 5,
        "author": "Andrew Zuckerman"
    },
    {
        "previewName": {
            "en": "Livingstone's turaco",
            "ru": "Турако Ливингстона"
        },
        "shortName": {
            "en": "Livingstone's turaco",
            "ru": "Турако Ливингстона"
        },
        "description": {
            "en": "Livingston's Turaco is considered one of the most beautiful birds, after the rain it shines like a diamond",
            "ru": "Турако Ливингстона считается одной из самых красивых птиц, после дождя она сияет, как бриллиант"
        },
        "staticWallpapers": [
            {
                "remoteUrl": "p7a_realr_light_preview",
                "previewRes": "p7a_realr_light_preview"
            },
            {
                "remoteUrl": "p7a_realr_dark_preview",
                "previewRes": "p7a_realr_dark_preview"
            }
        ],
        "parentId": 11,
        "categoryId": 5,
        "author": "Andrew Zuckerman"
    }
]